…
## Spatial Filters and Joins

We can filter a spatial data set to only include data that intersects
with another data set.

``` r
st_filter(age_df, ll_sf)
```

    Simple feature collection with 66 features and 4 fields
    Geometry type: MULTIPOLYGON
    Dimension:     XY
    Bounding box:  xmin: -73.50814 ymin: 41.4811 xmax: -69.92839 ymax: 42.74594
    Geodetic CRS:  NAD83
    # A tibble: 66 × 5
       FIPS  race                                         geometry  Total `65 to 74`
     * <chr> <chr>                              <MULTIPOLYGON [°]>  <dbl>      <dbl>
     1 25027 WHITE                       (((-72.31363 42.3964, -7… 679581      33648
     2 25027 BLACK OR AFRICAN AMERICAN   (((-72.31363 42.3964, -7…  41566        916
     3 25027 AMERICAN INDIAN AND ALASKA… (((-72.31363 42.3964, -7…   1768         59
     4 25027 ASIAN                       (((-72.31363 42.3964, -7…  41349        922
     5 25027 NATIVE HAWAIIAN AND OTHER … (((-72.31363 42.3964, -7…    298          0
     6 25027 SOME OTHER RACE             (((-72.31363 42.3964, -7…  25702        268
     7 25011 WHITE                       (((-73.02301 42.74114, -…  64910       4581
     8 25011 BLACK OR AFRICAN AMERICAN   (((-73.02301 42.74114, -…    785         28
     9 25011 AMERICAN INDIAN AND ALASKA… (((-73.02301 42.74114, -…    124          6
    10 25011 ASIAN                       (((-73.02301 42.74114, -…   1058          6
    # ℹ 56 more rows

(Change the `.predicate` parameter if you want to filter according to
something besides intersects.)

Joins can be used to link something like latitude longitude to other
spatial data.

``` r
ll_sf |>
  st_join(age_df, join = st_within) |>
  st_drop_geometry()
```

    # A tibble: 280 × 5
         val FIPS  race                                        Total `65 to 74`
     * <dbl> <chr> <chr>                                       <dbl>      <dbl>
     1 0.661 <NA>  <NA>                                           NA         NA
     2 0.528 25021 WHITE                                      535717      26078
     3 0.528 25021 BLACK OR AFRICAN AMERICAN                   50508       1320
     4 0.528 25021 AMERICAN INDIAN AND ALASKA NATIVE            1021          0
     5 0.528 25021 ASIAN                                       79812       2299
     6 0.528 25021 NATIVE HAWAIIAN AND OTHER PACIFIC ISLANDER    264          0
     7 0.528 25021 SOME OTHER RACE                             11640        407
     8 0.317 <NA>  <NA>                                           NA         NA
     9 0.768 <NA>  <NA>                                           NA         NA
    10 0.526 <NA>  <NA>                                           NA         NA
    # ℹ 270 more rows

# Going back to the COVID data

``` r
age_df |> left_join(county_cdf, join_by(FIPS == fips), relationship = "many-to-many")
```

    Simple feature collection with 1818 features and 9 fields
    Geometry type: MULTIPOLYGON
    Dimension:     XY
    Bounding box:  xmin: -73.50814 ymin: 41.23796 xmax: -69.92839 ymax: 42.88659
    Geodetic CRS:  NAD83
    # A tibble: 1,818 × 10
       FIPS  race                       geometry  Total `65 to 74` date       county
       <chr> <chr>            <MULTIPOLYGON [°]>  <dbl>      <dbl> <date>     <chr> 
     1 25027 WHITE (((-72.31363 42.3964, -72.31… 679581      33648 2020-03-08 Worce…
     2 25027 WHITE (((-72.31363 42.3964, -72.31… 679581      33648 2020-03-09 Worce…
     3 25027 WHITE (((-72.31363 42.3964, -72.31… 679581      33648 2020-03-10 Worce…
     4 25027 WHITE (((-72.31363 42.3964, -72.31… 679581      33648 2020-03-11 Worce…
     5 25027 WHITE (((-72.31363 42.3964, -72.31… 679581      33648 2020-03-12 Worce…
     6 25027 WHITE (((-72.31363 42.3964, -72.31… 679581      33648 2020-03-13 Worce…
     7 25027 WHITE (((-72.31363 42.3964, -72.31… 679581      33648 2020-03-14 Worce…
     8 25027 WHITE (((-72.31363 42.3964, -72.31… 679581      33648 2020-03-15 Worce…
     9 25027 WHITE (((-72.31363 42.3964, -72.31… 679581      33648 2020-03-16 Worce…
    10 25027 WHITE (((-72.31363 42.3964, -72.31… 679581      33648 2020-03-17 Worce…
    # ℹ 1,808 more rows
    # ℹ 3 more variables: state <chr>, cases <dbl>, deaths <dbl>
